This is BibTeX, Version 0.99d (TeX Live 2014)
Capacity: max_strings=35307, hash_size=35307, hash_prime=30011
The top-level auxiliary file: Tesis.aux
A level-1 auxiliary file: abreviaturas.aux
The style file: apalike.bst
Database file #1: Bibliog.bib
Repeated entry---line 98 of file Bibliog.bib
 : @article{mog
 :             ,
I'm skipping whatever remains of this entry
Warning--I'm ignoring CinbisS12's extra "pages" field
--line 134 of file Bibliog.bib
I was expecting a `,' or a `}'---line 134 of file Bibliog.bib
 :   pages = 43
 :             -47
I'm skipping whatever remains of this entry
Warning--string name "pets" is undefined
--line 183 of file Bibliog.bib
Warning--I'm ignoring Ramanan's extra "pages" field
--line 255 of file Bibliog.bib
A bad cross reference---entry "CinbisS12"
refers to entry "conf/eccv/2012-6", which doesn't exist
A bad cross reference---entry "AndrilukaRS09"
refers to entry "conf/cvpr/2009", which doesn't exist
A bad cross reference---entry "LiPC11"
refers to entry "conf/iccv/2011", which doesn't exist
Warning--I didn't find a database entry for "conf/eccv/2012-6"
Warning--I didn't find a database entry for "conf/cvpr/2009"
Warning--I didn't find a database entry for "conf/iccv/2011"
Warning--empty journal in gaussian
Warning--empty publisher in gonzalez
Warning--empty booktitle in Stalder
You've used 23 entries,
            1935 wiz_defined-function locations,
            615 strings with 7963 characters,
and the built_in function-call counts, 9327 in all, are:
= -- 875
> -- 438
< -- 17
+ -- 145
- -- 143
* -- 739
:= -- 1621
add.period$ -- 71
call.type$ -- 23
change.case$ -- 177
chr.to.int$ -- 23
cite$ -- 26
duplicate$ -- 405
empty$ -- 652
format.name$ -- 176
if$ -- 1869
int.to.chr$ -- 1
int.to.str$ -- 0
missing$ -- 23
newline$ -- 115
num.names$ -- 77
pop$ -- 216
preamble$ -- 1
purify$ -- 179
quote$ -- 0
skip$ -- 283
stack$ -- 0
substring$ -- 461
swap$ -- 71
text.length$ -- 8
text.prefix$ -- 0
top$ -- 0
type$ -- 134
warning$ -- 3
while$ -- 63
width$ -- 0
write$ -- 292
(There were 5 error messages)
